test@test-C9Z490-PGW:~/tools/backup6/GPU-rendering-programs/99-Face-Detection$ ./bin/face_detect_1gpu.exe images/input.png 
# turing t4


Copying image from host to device 0...
Executing kernel detectFaces on device 0...
Retrieving resultMatrix from device 0 to host...
Copying image from host to device 0...
Executing kernel detectFaces on device 0...
Retrieving resultMatrix from device 0 to host...
Copying image from host to device 0...
Executing kernel detectFaces on device 0...
Retrieving resultMatrix from device 0 to host...
Kernel elapsed time: 0.000000
Result found for size(95,105) in x,y: (139,36)
Result found for size(95,105) in x,y: (172,43)
Result found for size(95,115) in x,y: (139,35)
Result found for size(95,125) in x,y: (139,35)
Result found for size(95,125) in x,y: (217,37)
Result found for size(95,125) in x,y: (172,42)
Result found for size(95,125) in x,y: (82,86)
Result found for size(95,140) in x,y: (108,13)
Result found for size(95,140) in x,y: (137,25)
Result found for size(95,140) in x,y: (139,34)
Result found for size(95,140) in x,y: (217,36)
Result found for size(95,140) in x,y: (218,36)
Result found for size(95,140) in x,y: (219,36)
Result found for size(95,150) in x,y: (108,12)
Result found for size(95,150) in x,y: (137,25)
Result found for size(95,150) in x,y: (217,35)
Result found for size(95,150) in x,y: (218,35)
Result found for size(95,150) in x,y: (219,35)
Result found for size(95,150) in x,y: (220,35)
Result found for size(95,150) in x,y: (217,36)
Result found for size(95,150) in x,y: (218,36)
Result found for size(95,160) in x,y: (108,12)
Result found for size(95,160) in x,y: (137,25)
Result found for size(95,160) in x,y: (217,35)
Result found for size(95,160) in x,y: (218,35)
Result found for size(95,160) in x,y: (219,35)
Result found for size(95,160) in x,y: (219,36)
Result found for size(95,160) in x,y: (21,41)
Result found for size(95,170) in x,y: (217,35)
Result found for size(95,170) in x,y: (21,41)
Result found for size(95,180) in x,y: (218,34)
Result found for size(95,180) in x,y: (219,34)
Result found for size(95,190) in x,y: (217,33)
Result found for size(95,190) in x,y: (219,33)
Result found for size(95,190) in x,y: (217,34)
Result found for size(95,190) in x,y: (21,41)
Result found for size(105,125) in x,y: (105,23)
Result found for size(105,125) in x,y: (137,26)
Result found for size(105,125) in x,y: (48,30)
Result found for size(105,125) in x,y: (172,42)
Result found for size(105,125) in x,y: (81,86)
Result found for size(105,140) in x,y: (217,36)
Result found for size(105,140) in x,y: (218,36)
Result found for size(105,150) in x,y: (137,25)
Result found for size(105,150) in x,y: (217,35)
Result found for size(105,150) in x,y: (218,35)
Result found for size(105,150) in x,y: (219,35)
Result found for size(105,150) in x,y: (217,36)
Result found for size(105,150) in x,y: (218,36)
Result found for size(105,160) in x,y: (217,35)
Result found for size(105,160) in x,y: (218,35)
Result found for size(105,160) in x,y: (193,45)
Result found for size(105,170) in x,y: (219,34)
Result found for size(105,170) in x,y: (193,45)
Result found for size(105,180) in x,y: (218,34)
Result found for size(105,180) in x,y: (193,45)
Result found for size(105,190) in x,y: (219,33)
Result found for size(105,190) in x,y: (21,41)
Result found for size(115,105) in x,y: (138,36)
Result found for size(115,115) in x,y: (138,35)
Result found for size(115,115) in x,y: (81,87)
Result found for size(115,125) in x,y: (105,22)
Result found for size(115,125) in x,y: (138,35)
Result found for size(115,125) in x,y: (81,86)
Result found for size(115,140) in x,y: (138,34)
Result found for size(115,140) in x,y: (216,36)
Result found for size(115,140) in x,y: (217,36)
Result found for size(115,140) in x,y: (218,36)
Result found for size(115,140) in x,y: (81,86)
Result found for size(115,150) in x,y: (217,35)
Result found for size(115,150) in x,y: (218,35)
Result found for size(115,150) in x,y: (81,85)
Result found for size(115,160) in x,y: (105,21)
Result found for size(115,160) in x,y: (218,34)
Result found for size(115,160) in x,y: (218,35)
Result found for size(115,170) in x,y: (218,34)
Result found for size(115,180) in x,y: (218,34)
Result found for size(115,180) in x,y: (193,45)
Result found for size(115,190) in x,y: (218,34)
Result found for size(125,115) in x,y: (138,35)
Result found for size(125,115) in x,y: (81,87)
Result found for size(125,125) in x,y: (105,22)
Result found for size(125,125) in x,y: (104,23)
Result found for size(125,125) in x,y: (80,86)
Result found for size(125,125) in x,y: (81,86)
Result found for size(125,140) in x,y: (138,34)
Result found for size(125,140) in x,y: (216,36)
Result found for size(125,140) in x,y: (217,36)
Result found for size(125,140) in x,y: (218,36)
Result found for size(125,140) in x,y: (81,86)
Result found for size(125,150) in x,y: (104,22)
Result found for size(125,150) in x,y: (217,35)
Result found for size(125,150) in x,y: (218,35)
Result found for size(125,150) in x,y: (217,36)
Result found for size(125,150) in x,y: (81,85)
Result found for size(125,160) in x,y: (216,35)
Result found for size(125,160) in x,y: (217,35)
Result found for size(125,160) in x,y: (218,35)
Result found for size(125,190) in x,y: (217,33)
Result found for size(140,65) in x,y: (80,89)
Result found for size(140,115) in x,y: (80,87)
Result found for size(140,125) in x,y: (104,22)
Result found for size(140,125) in x,y: (79,86)
Result found for size(140,125) in x,y: (80,86)
Result found for size(140,125) in x,y: (81,86)
Result found for size(140,140) in x,y: (104,22)
Result found for size(140,140) in x,y: (105,22)
Result found for size(140,140) in x,y: (216,36)
Result found for size(140,140) in x,y: (217,36)
Result found for size(140,140) in x,y: (80,85)
Result found for size(140,140) in x,y: (80,86)
Result found for size(140,150) in x,y: (217,35)
Result found for size(140,150) in x,y: (80,85)
Result found for size(140,150) in x,y: (81,85)
Result found for size(140,160) in x,y: (104,21)
Result found for size(140,160) in x,y: (105,21)
Result found for size(140,160) in x,y: (80,85)
Result found for size(150,115) in x,y: (80,87)
Result found for size(150,125) in x,y: (103,23)
Result found for size(150,125) in x,y: (46,30)
Result found for size(150,125) in x,y: (79,86)
Result found for size(150,125) in x,y: (80,86)
Result found for size(150,140) in x,y: (216,36)
Result found for size(150,140) in x,y: (79,85)
Result found for size(150,140) in x,y: (80,85)
Result found for size(150,140) in x,y: (79,86)
Result found for size(150,140) in x,y: (80,86)
Result found for size(150,150) in x,y: (46,29)
Result found for size(150,150) in x,y: (79,85)
Result found for size(150,150) in x,y: (80,85)
Result found for size(150,160) in x,y: (104,21)
Result found for size(160,115) in x,y: (79,87)
Result found for size(160,125) in x,y: (104,22)
Result found for size(160,125) in x,y: (103,23)
Result found for size(160,125) in x,y: (79,86)
Result found for size(160,125) in x,y: (80,86)
Result found for size(160,140) in x,y: (103,22)
Result found for size(160,140) in x,y: (79,85)
Result found for size(160,140) in x,y: (79,86)
Result found for size(160,150) in x,y: (103,22)
Result found for size(160,150) in x,y: (46,29)
Result found for size(160,150) in x,y: (79,85)
Result found for size(160,150) in x,y: (80,85)
Result found for size(160,160) in x,y: (104,21)
Result found for size(160,160) in x,y: (79,85)
Result found for size(170,115) in x,y: (79,87)
Result found for size(170,125) in x,y: (103,22)
Result found for size(170,125) in x,y: (45,30)
Result found for size(170,125) in x,y: (79,86)
Result found for size(170,140) in x,y: (103,22)
Result found for size(170,140) in x,y: (79,86)
Result found for size(170,150) in x,y: (79,85)
Result found for size(170,160) in x,y: (103,21)
Result found for size(170,170) in x,y: (103,21)
Result found for size(180,115) in x,y: (78,87)
Result found for size(180,125) in x,y: (102,22)
Result found for size(180,125) in x,y: (103,22)
Result found for size(180,125) in x,y: (102,23)
Result found for size(180,125) in x,y: (45,30)
Result found for size(180,125) in x,y: (46,30)
Result found for size(180,125) in x,y: (78,86)
Result found for size(180,140) in x,y: (102,22)
Result found for size(180,140) in x,y: (78,85)
Result found for size(180,140) in x,y: (78,86)
Result found for size(180,150) in x,y: (102,22)
Result found for size(180,150) in x,y: (45,29)
Result found for size(180,150) in x,y: (78,85)
Result found for size(180,160) in x,y: (102,21)
Result found for size(180,160) in x,y: (103,21)
Result found for size(180,190) in x,y: (103,20)
Result found for size(190,125) in x,y: (102,22)
Result found for size(190,125) in x,y: (102,23)
Result found for size(190,125) in x,y: (44,30)
Result found for size(190,125) in x,y: (45,30)
Result found for size(190,125) in x,y: (78,86)
Result found for size(190,140) in x,y: (102,22)
Result found for size(190,140) in x,y: (78,86)
Result found for size(190,150) in x,y: (102,22)
Result found for size(190,150) in x,y: (103,22)
Result found for size(190,150) in x,y: (78,85)
Result found for size(190,160) in x,y: (102,21)
Saving result...
Freeing device memory...
Done.

