------------------
Output image size is 1920 x 1440
blocks.x : 69
blocks.y : 52
blocks.z : 1
==PROF== Profiling "kernel" - 2: 0%....50%....100% - 13 passes
Time to generate:  42378.7 ms; Framerate: 0.02 images/sec
image size : 1920 x 1440
------------------
muR : 0.1
sigmaR : 0
zoom, s : 1
sigmaFilter : 0.8
NmonteCarlo : 800
xA : 0
yA : 0
xB : 1920
yB : 1440
randomizeSeed : 1
------------------
Output image size is 1920 x 1440
blocks.x : 69
blocks.y : 52
blocks.z : 1
==PROF== Profiling "kernel" - 3: 0%....50%....100% - 13 passes
Time to generate:  40183.9 ms; Framerate: 0.02 images/sec
output file name : 22.png
time elapsed : 132.571
***************************


==PROF== Disconnected from process 51515
[51515] film_grain_rendering_main-O3@127.0.0.1
  kernel(float*, unsigned long, unsigned long, unsigned long, unsigned long, float, float, int, float, float, unsigned int, float, float, float, float), 2023-Mar-29 00:38:09, Context 1, Stream 7
    Section: Command line profiler metrics
    ---------------------------------------------------------------------- --------------- ------------------------------
    dram__bytes_read.sum                                                             Mbyte                          45.83
    dram__bytes_read.sum.per_second                                           Mbyte/second                          48.58
    dram__bytes_write.sum                                                            Mbyte                           6.15
    dram__bytes_write.sum.per_second                                          Mbyte/second                           6.52
    dram__sectors_read.sum                                                          sector                      1,432,192
    dram__sectors_write.sum                                                         sector                        192,184
    l1tex__f_tex2sm_cycles_active.avg.pct_of_peak_sustained_elapsed                      %                          13.82
    l1tex__lsu_writeback_active.avg.pct_of_peak_sustained_active                         %                           0.00
    l1tex__lsu_writeback_active.sum                                                  cycle                        356,868
    l1tex__t_bytes_pipe_lsu_mem_global_op_ld.sum.per_second                    byte/second                              0
    l1tex__t_bytes_pipe_lsu_mem_global_op_st.sum                                     Mbyte                          13.81
    l1tex__t_bytes_pipe_lsu_mem_global_op_st.sum.per_second                   Mbyte/second                          14.64
    l1tex__t_bytes_pipe_lsu_mem_local_op_ld.sum.per_second                     byte/second                              0
    l1tex__t_requests_pipe_lsu_mem_global_op_atom.sum                              request                              0
    l1tex__t_requests_pipe_lsu_mem_global_op_ld.sum                                request                              0
    l1tex__t_requests_pipe_lsu_mem_global_op_red.sum                               request                              0
    l1tex__t_requests_pipe_lsu_mem_global_op_st.sum                                request                         88,734
    l1tex__t_requests_pipe_lsu_mem_local_op_ld.sum                                 request                              0
    l1tex__t_requests_pipe_lsu_mem_local_op_st.sum                                 request                    141,974,400
    l1tex__t_requests_pipe_tex_mem_surface_op_atom.sum                             request                              0
    l1tex__t_requests_pipe_tex_mem_surface_op_ld.sum                               request                              0
    l1tex__t_requests_pipe_tex_mem_surface_op_red.sum                              request                              0
    l1tex__t_requests_pipe_tex_mem_surface_op_st.sum                               request                              0
    l1tex__t_requests_pipe_tex_mem_texture.sum                                     request                 10,771,355,607
    l1tex__t_sector_hit_rate.pct                                                         %                          99.99
    l1tex__t_sectors_pipe_lsu_mem_global_op.sum                                                                   (!) n/a
    l1tex__t_sectors_pipe_lsu_mem_global_op_ld.sum                                  sector                              0
    l1tex__t_sectors_pipe_lsu_mem_global_op_lookup_hit.sum                                                        (!) n/a
    l1tex__t_sectors_pipe_lsu_mem_local_op_ld.sum                                   sector                              0
    l1tex__t_sectors_pipe_lsu_mem_local_op_st.sum                                   sector                    554,111,883
    l1tex__t_sectors_pipe_lsu_mem_local_op_st.sum.per_second                sector/usecond                         587.38
    l1tex__t_set_accesses_pipe_lsu_mem_global_op_atom.sum                                                               0
    l1tex__t_set_accesses_pipe_lsu_mem_global_op_red.sum                                                                0
    l1tex__t_set_accesses_pipe_tex_mem_surface_op_atom.sum                                                              0
    l1tex__t_set_accesses_pipe_tex_mem_surface_op_red.sum                                                               0
    l1tex__tex_writeback_active.avg.pct_of_peak_sustained_active                         %                          17.03
    l1tex__texin_sm2tex_req_cycles_active.avg.pct_of_peak_sustained_elapse               %                          13.82
    d                                                                                                                    
    lts__t_bytes_equiv_l1sectormiss_pipe_lsu_mem_global_op_ld.sum                     byte                              0
    lts__t_bytes_equiv_l1sectormiss_pipe_lsu_mem_global_op_st.sum                    Mbyte                          10.22
    lts__t_bytes_equiv_l1sectormiss_pipe_lsu_mem_surface_op_st.sum                                                (!) n/a
    lts__t_bytes_equiv_l1sectormiss_pipe_tex_mem_surface_op_ld.sum                    byte                              0
    lts__t_sector_hit_rate.pct                                                           %                          99.61
    lts__t_sector_op_read_hit_rate.pct                                                   %                          49.55
    lts__t_sector_op_write_hit_rate.pct                                                  %                         100.00
    lts__t_sectors.avg.pct_of_peak_sustained_elapsed                                     %                           0.72
    lts__t_sectors_aperture_sysmem_op_read.sum                                      sector                              0
    lts__t_sectors_aperture_sysmem_op_read.sum.per_second                    sector/second                              0
    lts__t_sectors_aperture_sysmem_op_write.sum                                     sector                             64
    lts__t_sectors_aperture_sysmem_op_write.sum.per_second                   sector/second                          67.84
    lts__t_sectors_op_read.sum                                                      sector                      3,074,480
    lts__t_sectors_op_read.sum.per_second                                   sector/usecond                           3.26
    lts__t_sectors_op_write.sum                                                     sector                    829,967,079
    lts__t_sectors_op_write.sum.per_second                                  sector/usecond                         879.79
    lts__t_sectors_srcunit_l1_op_atom.sum                                           sector                              0
    lts__t_sectors_srcunit_l1_op_atom.sum.per_second                         sector/second                              0
    lts__t_sectors_srcunit_tex_op_read.sum                                          sector                      2,120,525
    lts__t_sectors_srcunit_tex_op_read.sum.per_second                       sector/usecond                           2.25
    sm__mio2rf_writeback_active.avg.pct_of_peak_sustained_elapsed                        %                           1.58
    sm__pipe_tensor_cycles_active.avg.pct_of_peak_sustained_active                       %                              0
    sm__warps_active.avg.pct_of_peak_sustained_active                                    %                          35.39
    smsp__average_inst_executed_per_warp.ratio                                   inst/warp                   1,622,408.12
    smsp__cycles_active.avg.pct_of_peak_sustained_elapsed                                %                          76.19
    smsp__inst_executed.avg.per_cycle_active                                    inst/cycle                           0.61
    smsp__inst_executed.sum                                                           inst                145,530,007,918
    smsp__inst_executed_op_global_atom.sum                                                                        (!) n/a
    smsp__inst_executed_op_global_ld.sum                                              inst                              0
    smsp__inst_executed_op_global_st.sum                                              inst                         88,734
    smsp__inst_executed_op_local_ld.sum                                               inst                              0
    smsp__inst_executed_op_shared_atom.sum                                            inst                              0
    smsp__inst_executed_op_shared_atom_dot_alu.sum                                    inst                              0
    smsp__inst_executed_op_shared_atom_dot_cas.sum                                    inst                              0
    smsp__inst_executed_op_shared_ld.avg.pct_of_peak_sustained_elapsed                   %                              0
    smsp__inst_executed_op_shared_ld.sum                                              inst                              0
    smsp__inst_executed_op_shared_ld.sum.per_second                            inst/second                              0
    smsp__inst_executed_op_shared_st.avg.pct_of_peak_sustained_elapsed                   %                              0
    smsp__inst_executed_op_shared_st.sum                                              inst                              0
    smsp__inst_executed_op_shared_st.sum.per_second                            inst/second                              0
    smsp__inst_executed_op_surface_atom.sum                                           inst                              0
    smsp__inst_executed_op_surface_ld.sum                                             inst                              0
    smsp__inst_executed_op_surface_red.sum                                            inst                              0
    smsp__inst_executed_op_surface_st.sum                                             inst                              0
    smsp__inst_executed_op_texture.sum                                                inst                  1,611,755,571
    smsp__inst_executed_pipe_adu.sum                                                  inst                    852,203,268
    smsp__inst_executed_pipe_cbu.sum                                                  inst                 11,750,779,135
    smsp__inst_executed_pipe_fp16.sum                                                 inst                              0
    smsp__inst_executed_pipe_fp64.avg.pct_of_peak_sustained_active                       %                          27.18
    smsp__inst_executed_pipe_lsu.avg.pct_of_peak_sustained_active                        %                           0.06
    smsp__inst_executed_pipe_tex.avg.pct_of_peak_sustained_active                        %                           1.36
    smsp__inst_issued.avg.per_cycle_active                                      inst/cycle                           0.61
    smsp__inst_issued.sum                                                             inst                146,028,724,167
    smsp__issue_active.avg.pct_of_peak_sustained_active                                  %                          61.47
    smsp__sass_thread_inst_executed_op_control_pred_on.sum                            inst                188,229,763,548
    smsp__sass_thread_inst_executed_op_dadd_pred_on.sum                               inst                 22,056,544,030
    smsp__sass_thread_inst_executed_op_dfma_pred_on.sum                               inst                134,787,984,045
    smsp__sass_thread_inst_executed_op_dmul_pred_on.sum                               inst                 64,050,576,045
    smsp__sass_thread_inst_executed_op_fadd_pred_on.sum                               inst                 30,966,315,866
    smsp__sass_thread_inst_executed_op_ffma_pred_on.sum                               inst                144,838,903,358
    smsp__sass_thread_inst_executed_op_fmul_pred_on.sum                               inst                 65,084,503,300
    smsp__sass_thread_inst_executed_op_fp16_pred_on.sum                               inst                              0
    smsp__sass_thread_inst_executed_op_fp32_pred_on.sum                               inst                351,269,007,140
    smsp__sass_thread_inst_executed_op_fp64_pred_on.sum                               inst                249,594,376,915
    smsp__sass_thread_inst_executed_op_hadd_pred_on.sum                               inst                              0
    smsp__sass_thread_inst_executed_op_hfma_pred_on.sum                               inst                              0
    smsp__sass_thread_inst_executed_op_hmul_pred_on.sum                               inst                              0
    smsp__sass_thread_inst_executed_op_integer_pred_on.sum                            inst                679,568,192,198
    smsp__sass_thread_inst_executed_op_inter_thread_communication_pred_on.            inst                              0
    sum                                                                                                                  
    smsp__sass_thread_inst_executed_op_memory_pred_on.sum                             inst                 64,110,545,970
    smsp__sass_thread_inst_executed_op_misc_pred_on.sum                               inst                 75,822,613,549
    smsp__sass_thread_inst_executed_op_mufu_pred_on.sum                                                           (!) n/a
    smsp__thread_inst_executed_per_inst_executed.pct                                     %                          44.28
    smsp__thread_inst_executed_per_inst_executed.ratio                                                              14.17
    smsp__warp_issue_stalled_drain_miss_per_warp_active.pct                                                       (!) n/a
    smsp__warp_issue_stalled_imc_miss_per_warp_active.pct                                %                           0.00
    smsp__warp_issue_stalled_long_scoreboard_miss_per_warp_active.pct                                             (!) n/a
    smsp__warp_issue_stalled_misc_membar_per_warp_active.pct                                                      (!) n/a
    smsp__warp_issue_stalled_misc_mio_throttle_per_warp_active.pct                                                (!) n/a
    smsp__warp_issue_stalled_misc_miss_per_warp_active.pct                                                        (!) n/a
    smsp__warp_issue_stalled_misc_sleeping_per_warp_active.pct                                                    (!) n/a
    smsp__warp_issue_stalled_misc_tex_throttle_per_warp_active.pct                                                (!) n/a
    smsp__warp_issue_stalled_no_instruction_miss_per_warp_active.pct                                              (!) n/a
    smsp__warp_issue_stalled_short_scoreboard_miss_per_warp_active.pct                                            (!) n/a
    smsp__warps_eligible.sum.per_cycle_active                                         warp                         498.72
    ---------------------------------------------------------------------- --------------- ------------------------------

  kernel(float*, unsigned long, unsigned long, unsigned long, unsigned long, float, float, int, float, float, unsigned int, float, float, float, float), 2023-Mar-29 00:38:52, Context 1, Stream 7
    Section: Command line profiler metrics
    ---------------------------------------------------------------------- --------------- ------------------------------
    dram__bytes_read.sum                                                             Mbyte                          45.62
    dram__bytes_read.sum.per_second                                           Mbyte/second                          57.76
    dram__bytes_write.sum                                                            Mbyte                           6.15
    dram__bytes_write.sum.per_second                                          Mbyte/second                           7.79
    dram__sectors_read.sum                                                          sector                      1,425,560
    dram__sectors_write.sum                                                         sector                        192,324
    l1tex__f_tex2sm_cycles_active.avg.pct_of_peak_sustained_elapsed                      %                          17.50
    l1tex__lsu_writeback_active.avg.pct_of_peak_sustained_active                         %                           0.00
    l1tex__lsu_writeback_active.sum                                                  cycle                        356,868
    l1tex__t_bytes_pipe_lsu_mem_global_op_ld.sum.per_second                    byte/second                              0
    l1tex__t_bytes_pipe_lsu_mem_global_op_st.sum                                     Mbyte                          13.81
    l1tex__t_bytes_pipe_lsu_mem_global_op_st.sum.per_second                   Mbyte/second                          17.49
    l1tex__t_bytes_pipe_lsu_mem_local_op_ld.sum.per_second                     byte/second                              0
    l1tex__t_requests_pipe_lsu_mem_global_op_atom.sum                              request                              0
    l1tex__t_requests_pipe_lsu_mem_global_op_ld.sum                                request                              0
    l1tex__t_requests_pipe_lsu_mem_global_op_red.sum                               request                              0
    l1tex__t_requests_pipe_lsu_mem_global_op_st.sum                                request                         88,734
    l1tex__t_requests_pipe_lsu_mem_local_op_ld.sum                                 request                              0
    l1tex__t_requests_pipe_lsu_mem_local_op_st.sum                                 request                    141,974,400
    l1tex__t_requests_pipe_tex_mem_surface_op_atom.sum                             request                              0
    l1tex__t_requests_pipe_tex_mem_surface_op_ld.sum                               request                              0
    l1tex__t_requests_pipe_tex_mem_surface_op_red.sum                              request                              0
    l1tex__t_requests_pipe_tex_mem_surface_op_st.sum                               request                              0
    l1tex__t_requests_pipe_tex_mem_texture.sum                                     request                 11,372,367,858
    l1tex__t_sector_hit_rate.pct                                                         %                          99.99
    l1tex__t_sectors_pipe_lsu_mem_global_op.sum                                                                   (!) n/a
    l1tex__t_sectors_pipe_lsu_mem_global_op_ld.sum                                  sector                              0
    l1tex__t_sectors_pipe_lsu_mem_global_op_lookup_hit.sum                                                        (!) n/a
    l1tex__t_sectors_pipe_lsu_mem_local_op_ld.sum                                   sector                              0
    l1tex__t_sectors_pipe_lsu_mem_local_op_st.sum                                   sector                    554,111,900
    l1tex__t_sectors_pipe_lsu_mem_local_op_st.sum.per_second                sector/usecond                         701.61
    l1tex__t_set_accesses_pipe_lsu_mem_global_op_atom.sum                                                               0
    l1tex__t_set_accesses_pipe_lsu_mem_global_op_red.sum                                                                0
    l1tex__t_set_accesses_pipe_tex_mem_surface_op_atom.sum                                                              0
    l1tex__t_set_accesses_pipe_tex_mem_surface_op_red.sum                                                               0
    l1tex__tex_writeback_active.avg.pct_of_peak_sustained_active                         %                          18.83
    l1tex__texin_sm2tex_req_cycles_active.avg.pct_of_peak_sustained_elapse               %                          17.50
    d                                                                                                                    
    lts__t_bytes_equiv_l1sectormiss_pipe_lsu_mem_global_op_ld.sum                     byte                              0
    lts__t_bytes_equiv_l1sectormiss_pipe_lsu_mem_global_op_st.sum                    Mbyte                          10.22
    lts__t_bytes_equiv_l1sectormiss_pipe_lsu_mem_surface_op_st.sum                                                (!) n/a
    lts__t_bytes_equiv_l1sectormiss_pipe_tex_mem_surface_op_ld.sum                    byte                              0
    lts__t_sector_hit_rate.pct                                                           %                          99.85
    lts__t_sector_op_read_hit_rate.pct                                                   %                          48.66
    lts__t_sector_op_write_hit_rate.pct                                                  %                         100.04
    lts__t_sectors.avg.pct_of_peak_sustained_elapsed                                     %                           0.92
    lts__t_sectors_aperture_sysmem_op_read.sum                                      sector                              0
    lts__t_sectors_aperture_sysmem_op_read.sum.per_second                    sector/second                              0
    lts__t_sectors_aperture_sysmem_op_write.sum                                     sector                             54
    lts__t_sectors_aperture_sysmem_op_write.sum.per_second                   sector/second                          68.37
    lts__t_sectors_op_read.sum                                                      sector                      3,115,687
    lts__t_sectors_op_read.sum.per_second                                   sector/usecond                           3.95
    lts__t_sectors_op_write.sum                                                     sector                    829,679,307
    lts__t_sectors_op_write.sum.per_second                                  sector/nsecond                           1.05
    lts__t_sectors_srcunit_l1_op_atom.sum                                           sector                              0
    lts__t_sectors_srcunit_l1_op_atom.sum.per_second                         sector/second                              0
    lts__t_sectors_srcunit_tex_op_read.sum                                          sector                      2,115,145
    lts__t_sectors_srcunit_tex_op_read.sum.per_second                       sector/usecond                           2.68
    sm__mio2rf_writeback_active.avg.pct_of_peak_sustained_elapsed                        %                           1.93
    sm__pipe_tensor_cycles_active.avg.pct_of_peak_sustained_active                       %                              0
    sm__warps_active.avg.pct_of_peak_sustained_active                                    %                          35.34
    smsp__average_inst_executed_per_warp.ratio                                   inst/warp                   1,553,247.66
    smsp__cycles_active.avg.pct_of_peak_sustained_elapsed                                %                          87.35
    smsp__inst_executed.avg.per_cycle_active                                    inst/cycle                           0.61
    smsp__inst_executed.sum                                                           inst                139,326,314,915
    smsp__inst_executed_op_global_atom.sum                                                                        (!) n/a
    smsp__inst_executed_op_global_ld.sum                                              inst                              0
    smsp__inst_executed_op_global_st.sum                                              inst                         88,734
    smsp__inst_executed_op_local_ld.sum                                               inst                              0
    smsp__inst_executed_op_shared_atom.sum                                            inst                              0
    smsp__inst_executed_op_shared_atom_dot_alu.sum                                    inst                              0
    smsp__inst_executed_op_shared_atom_dot_cas.sum                                    inst                              0
    smsp__inst_executed_op_shared_ld.avg.pct_of_peak_sustained_elapsed                   %                              0
    smsp__inst_executed_op_shared_ld.sum                                              inst                              0
    smsp__inst_executed_op_shared_ld.sum.per_second                            inst/second                              0
    smsp__inst_executed_op_shared_st.avg.pct_of_peak_sustained_elapsed                   %                              0
    smsp__inst_executed_op_shared_st.sum                                              inst                              0
    smsp__inst_executed_op_shared_st.sum.per_second                            inst/second                              0
    smsp__inst_executed_op_surface_atom.sum                                           inst                              0
    smsp__inst_executed_op_surface_ld.sum                                             inst                              0
    smsp__inst_executed_op_surface_red.sum                                            inst                              0
    smsp__inst_executed_op_surface_st.sum                                             inst                              0
    smsp__inst_executed_op_texture.sum                                                inst                  1,650,159,702
    smsp__inst_executed_pipe_adu.sum                                                  inst                    852,203,268
    smsp__inst_executed_pipe_cbu.sum                                                  inst                 11,107,136,199
    smsp__inst_executed_pipe_fp16.sum                                                 inst                              0
    smsp__inst_executed_pipe_fp64.avg.pct_of_peak_sustained_active                       %                          27.07
    smsp__inst_executed_pipe_lsu.avg.pct_of_peak_sustained_active                        %                           0.06
    smsp__inst_executed_pipe_tex.avg.pct_of_peak_sustained_active                        %                           1.45
    smsp__inst_issued.avg.per_cycle_active                                      inst/cycle                           0.62
    smsp__inst_issued.sum                                                             inst                139,796,619,599
    smsp__issue_active.avg.pct_of_peak_sustained_active                                  %                          61.57
    smsp__sass_thread_inst_executed_op_control_pred_on.sum                            inst                191,225,198,840
    smsp__sass_thread_inst_executed_op_dadd_pred_on.sum                               inst                 20,490,074,722
    smsp__sass_thread_inst_executed_op_dfma_pred_on.sum                               inst                132,474,222,483
    smsp__sass_thread_inst_executed_op_dmul_pred_on.sum                               inst                 61,700,872,083
    smsp__sass_thread_inst_executed_op_fadd_pred_on.sum                               inst                 28,846,971,674
    smsp__sass_thread_inst_executed_op_ffma_pred_on.sum                               inst                138,004,656,552
    smsp__sass_thread_inst_executed_op_fmul_pred_on.sum                               inst                 64,121,142,009
    smsp__sass_thread_inst_executed_op_fp16_pred_on.sum                               inst                              0
    smsp__sass_thread_inst_executed_op_fp32_pred_on.sum                               inst                341,435,008,977
    smsp__sass_thread_inst_executed_op_fp64_pred_on.sum                               inst                244,586,028,447
    smsp__sass_thread_inst_executed_op_hadd_pred_on.sum                               inst                              0
    smsp__sass_thread_inst_executed_op_hfma_pred_on.sum                               inst                              0
    smsp__sass_thread_inst_executed_op_hmul_pred_on.sum                               inst                              0
    smsp__sass_thread_inst_executed_op_integer_pred_on.sum                            inst                700,179,253,536
    smsp__sass_thread_inst_executed_op_inter_thread_communication_pred_on.            inst                              0
    sum                                                                                                                  
    smsp__sass_thread_inst_executed_op_memory_pred_on.sum                             inst                 67,117,777,497
    smsp__sass_thread_inst_executed_op_misc_pred_on.sum                               inst                 76,878,961,325
    smsp__sass_thread_inst_executed_op_mufu_pred_on.sum                                                           (!) n/a
    smsp__thread_inst_executed_per_inst_executed.pct                                     %                          46.61
    smsp__thread_inst_executed_per_inst_executed.ratio                                                              14.92
    smsp__warp_issue_stalled_drain_miss_per_warp_active.pct                                                       (!) n/a
    smsp__warp_issue_stalled_imc_miss_per_warp_active.pct                                %                           0.00
    smsp__warp_issue_stalled_long_scoreboard_miss_per_warp_active.pct                                             (!) n/a
    smsp__warp_issue_stalled_misc_membar_per_warp_active.pct                                                      (!) n/a
    smsp__warp_issue_stalled_misc_mio_throttle_per_warp_active.pct                                                (!) n/a
    smsp__warp_issue_stalled_misc_miss_per_warp_active.pct                                                        (!) n/a
    smsp__warp_issue_stalled_misc_sleeping_per_warp_active.pct                                                    (!) n/a
    smsp__warp_issue_stalled_misc_tex_throttle_per_warp_active.pct                                                (!) n/a
    smsp__warp_issue_stalled_no_instruction_miss_per_warp_active.pct                                              (!) n/a
    smsp__warp_issue_stalled_short_scoreboard_miss_per_warp_active.pct                                            (!) n/a
    smsp__warps_eligible.sum.per_cycle_active                                         warp                         500.59
    ---------------------------------------------------------------------- --------------- ------------------------------

  kernel(float*, unsigned long, unsigned long, unsigned long, unsigned long, float, float, int, float, float, unsigned int, float, float, float, float), 2023-Mar-29 00:39:32, Context 1, Stream 7
    Section: Command line profiler metrics
    ---------------------------------------------------------------------- --------------- ------------------------------
    dram__bytes_read.sum                                                             Mbyte                          45.94
    dram__bytes_read.sum.per_second                                           Mbyte/second                          60.23
    dram__bytes_write.sum                                                            Mbyte                           6.13
    dram__bytes_write.sum.per_second                                          Mbyte/second                           8.04
    dram__sectors_read.sum                                                          sector                      1,435,740
    dram__sectors_write.sum                                                         sector                        191,660
    l1tex__f_tex2sm_cycles_active.avg.pct_of_peak_sustained_elapsed                      %                          17.58
    l1tex__lsu_writeback_active.avg.pct_of_peak_sustained_active                         %                           0.00
    l1tex__lsu_writeback_active.sum                                                  cycle                        356,868
    l1tex__t_bytes_pipe_lsu_mem_global_op_ld.sum.per_second                    byte/second                              0
    l1tex__t_bytes_pipe_lsu_mem_global_op_st.sum                                     Mbyte                          13.81
    l1tex__t_bytes_pipe_lsu_mem_global_op_st.sum.per_second                   Mbyte/second                          18.11
    l1tex__t_bytes_pipe_lsu_mem_local_op_ld.sum.per_second                     byte/second                              0
    l1tex__t_requests_pipe_lsu_mem_global_op_atom.sum                              request                              0
    l1tex__t_requests_pipe_lsu_mem_global_op_ld.sum                                request                              0
    l1tex__t_requests_pipe_lsu_mem_global_op_red.sum                               request                              0
    l1tex__t_requests_pipe_lsu_mem_global_op_st.sum                                request                         88,734
    l1tex__t_requests_pipe_lsu_mem_local_op_ld.sum                                 request                              0
    l1tex__t_requests_pipe_lsu_mem_local_op_st.sum                                 request                    141,974,400
    l1tex__t_requests_pipe_tex_mem_surface_op_atom.sum                             request                              0
    l1tex__t_requests_pipe_tex_mem_surface_op_ld.sum                               request                              0
    l1tex__t_requests_pipe_tex_mem_surface_op_red.sum                              request                              0
    l1tex__t_requests_pipe_tex_mem_surface_op_st.sum                               request                              0
    l1tex__t_requests_pipe_tex_mem_texture.sum                                     request                 11,073,825,336
    l1tex__t_sector_hit_rate.pct                                                         %                          99.99
    l1tex__t_sectors_pipe_lsu_mem_global_op.sum                                                                   (!) n/a
    l1tex__t_sectors_pipe_lsu_mem_global_op_ld.sum                                  sector                              0
    l1tex__t_sectors_pipe_lsu_mem_global_op_lookup_hit.sum                                                        (!) n/a
    l1tex__t_sectors_pipe_lsu_mem_local_op_ld.sum                                   sector                              0
    l1tex__t_sectors_pipe_lsu_mem_local_op_st.sum                                   sector                    554,111,971
    l1tex__t_sectors_pipe_lsu_mem_local_op_st.sum.per_second                sector/usecond                         726.40
    l1tex__t_set_accesses_pipe_lsu_mem_global_op_atom.sum                                                               0
    l1tex__t_set_accesses_pipe_lsu_mem_global_op_red.sum                                                                0
    l1tex__t_set_accesses_pipe_tex_mem_surface_op_atom.sum                                                              0
    l1tex__t_set_accesses_pipe_tex_mem_surface_op_red.sum                                                               0
    l1tex__tex_writeback_active.avg.pct_of_peak_sustained_active                         %                          17.86
    l1tex__texin_sm2tex_req_cycles_active.avg.pct_of_peak_sustained_elapse               %                          17.58
    d                                                                                                                    
    lts__t_bytes_equiv_l1sectormiss_pipe_lsu_mem_global_op_ld.sum                     byte                              0
    lts__t_bytes_equiv_l1sectormiss_pipe_lsu_mem_global_op_st.sum                    Mbyte                          10.22
    lts__t_bytes_equiv_l1sectormiss_pipe_lsu_mem_surface_op_st.sum                                                (!) n/a
    lts__t_bytes_equiv_l1sectormiss_pipe_tex_mem_surface_op_ld.sum                    byte                              0
    lts__t_sector_hit_rate.pct                                                           %                          99.62
    lts__t_sector_op_read_hit_rate.pct                                                   %                          45.41
    lts__t_sector_op_write_hit_rate.pct                                                  %                         100.00
    lts__t_sectors.avg.pct_of_peak_sustained_elapsed                                     %                           0.95
    lts__t_sectors_aperture_sysmem_op_read.sum                                      sector                              0
    lts__t_sectors_aperture_sysmem_op_read.sum.per_second                    sector/second                              0
    lts__t_sectors_aperture_sysmem_op_write.sum                                     sector                             53
    lts__t_sectors_aperture_sysmem_op_write.sum.per_second                   sector/second                          69.48
    lts__t_sectors_op_read.sum                                                      sector                      2,792,846
    lts__t_sectors_op_read.sum.per_second                                   sector/usecond                           3.66
    lts__t_sectors_op_write.sum                                                     sector                    830,155,560
    lts__t_sectors_op_write.sum.per_second                                  sector/nsecond                           1.09
    lts__t_sectors_srcunit_l1_op_atom.sum                                           sector                              0
    lts__t_sectors_srcunit_l1_op_atom.sum.per_second                         sector/second                              0
    lts__t_sectors_srcunit_tex_op_read.sum                                          sector                      1,875,785
    lts__t_sectors_srcunit_tex_op_read.sum.per_second                       sector/usecond                           2.46
    sm__mio2rf_writeback_active.avg.pct_of_peak_sustained_elapsed                        %                           1.98
    sm__pipe_tensor_cycles_active.avg.pct_of_peak_sustained_active                       %                              0
    sm__warps_active.avg.pct_of_peak_sustained_active                                    %                          35.43
    smsp__average_inst_executed_per_warp.ratio                                   inst/warp                   1,594,742.81
    smsp__cycles_active.avg.pct_of_peak_sustained_elapsed                                %                          92.57
    smsp__inst_executed.avg.per_cycle_active                                    inst/cycle                           0.61
    smsp__inst_executed.sum                                                           inst                143,048,429,717
    smsp__inst_executed_op_global_atom.sum                                                                        (!) n/a
    smsp__inst_executed_op_global_ld.sum                                              inst                              0
    smsp__inst_executed_op_global_st.sum                                              inst                         88,734
    smsp__inst_executed_op_local_ld.sum                                               inst                              0
    smsp__inst_executed_op_shared_atom.sum                                            inst                              0
    smsp__inst_executed_op_shared_atom_dot_alu.sum                                    inst                              0
    smsp__inst_executed_op_shared_atom_dot_cas.sum                                    inst                              0
    smsp__inst_executed_op_shared_ld.avg.pct_of_peak_sustained_elapsed                   %                              0
    smsp__inst_executed_op_shared_ld.sum                                              inst                              0
    smsp__inst_executed_op_shared_ld.sum.per_second                            inst/second                              0
    smsp__inst_executed_op_shared_st.avg.pct_of_peak_sustained_elapsed                   %                              0
    smsp__inst_executed_op_shared_st.sum                                              inst                              0
    smsp__inst_executed_op_shared_st.sum.per_second                            inst/second                              0
    smsp__inst_executed_op_surface_atom.sum                                           inst                              0
    smsp__inst_executed_op_surface_ld.sum                                             inst                              0
    smsp__inst_executed_op_surface_red.sum                                            inst                              0
    smsp__inst_executed_op_surface_st.sum                                             inst                              0
    smsp__inst_executed_op_texture.sum                                                inst                  1,645,216,944
    smsp__inst_executed_pipe_adu.sum                                                  inst                    852,203,268
    smsp__inst_executed_pipe_cbu.sum                                                  inst                 11,459,853,531
    smsp__inst_executed_pipe_fp16.sum                                                 inst                              0
    smsp__inst_executed_pipe_fp64.avg.pct_of_peak_sustained_active                       %                          27.11
    smsp__inst_executed_pipe_lsu.avg.pct_of_peak_sustained_active                        %                           0.06
    smsp__inst_executed_pipe_tex.avg.pct_of_peak_sustained_active                        %                           1.41
    smsp__inst_issued.avg.per_cycle_active                                      inst/cycle                           0.62
    smsp__inst_issued.sum                                                             inst                143,567,119,979
    smsp__issue_active.avg.pct_of_peak_sustained_active                                  %                          61.54
    smsp__sass_thread_inst_executed_op_control_pred_on.sum                            inst                186,818,426,848
    smsp__sass_thread_inst_executed_op_dadd_pred_on.sum                               inst                 21,092,218,006
    smsp__sass_thread_inst_executed_op_dfma_pred_on.sum                               inst                133,349,789,409
    smsp__sass_thread_inst_executed_op_dmul_pred_on.sum                               inst                 62,604,087,009
    smsp__sass_thread_inst_executed_op_fadd_pred_on.sum                               inst                 29,684,570,932
    smsp__sass_thread_inst_executed_op_ffma_pred_on.sum                               inst                140,506,547,415
    smsp__sass_thread_inst_executed_op_fmul_pred_on.sum                               inst                 63,888,499,360
    smsp__sass_thread_inst_executed_op_fp16_pred_on.sum                               inst                              0
    smsp__sass_thread_inst_executed_op_fp32_pred_on.sum                               inst                343,397,348,295
    smsp__sass_thread_inst_executed_op_fp64_pred_on.sum                               inst                245,807,916,089
    smsp__sass_thread_inst_executed_op_hadd_pred_on.sum                               inst                              0
    smsp__sass_thread_inst_executed_op_hfma_pred_on.sum                               inst                              0
    smsp__sass_thread_inst_executed_op_hmul_pred_on.sum                               inst                              0
    smsp__sass_thread_inst_executed_op_integer_pred_on.sum                            inst                679,963,683,947
    smsp__sass_thread_inst_executed_op_inter_thread_communication_pred_on.            inst                              0
    sum                                                                                                                  
    smsp__sass_thread_inst_executed_op_memory_pred_on.sum                             inst                 64,927,613,793
    smsp__sass_thread_inst_executed_op_misc_pred_on.sum                               inst                 75,393,651,785
    smsp__sass_thread_inst_executed_op_mufu_pred_on.sum                                                           (!) n/a
    smsp__thread_inst_executed_per_inst_executed.pct                                     %                          44.71
    smsp__thread_inst_executed_per_inst_executed.ratio                                                              14.31
    smsp__warp_issue_stalled_drain_miss_per_warp_active.pct                                                       (!) n/a
    smsp__warp_issue_stalled_imc_miss_per_warp_active.pct                                %                           0.00
    smsp__warp_issue_stalled_long_scoreboard_miss_per_warp_active.pct                                             (!) n/a
    smsp__warp_issue_stalled_misc_membar_per_warp_active.pct                                                      (!) n/a
    smsp__warp_issue_stalled_misc_mio_throttle_per_warp_active.pct                                                (!) n/a
    smsp__warp_issue_stalled_misc_miss_per_warp_active.pct                                                        (!) n/a
    smsp__warp_issue_stalled_misc_sleeping_per_warp_active.pct                                                    (!) n/a
    smsp__warp_issue_stalled_misc_tex_throttle_per_warp_active.pct                                                (!) n/a
    smsp__warp_issue_stalled_no_instruction_miss_per_warp_active.pct                                              (!) n/a
    smsp__warp_issue_stalled_short_scoreboard_miss_per_warp_active.pct                                            (!) n/a
    smsp__warps_eligible.sum.per_cycle_active                                         warp                         499.29

